* Correspondence between files and instances.
* Instance names have been cleaned for clarity (LCGDRPP and gdrpp).

file: "5_0_2.js",	instance: "A3101_15",	vehicles: "2"
file: "5_0_3.js",	instance: "A3101_15",	vehicles: "3"
file: "5_0_4.js",	instance: "A3101_15",	vehicles: "4"
file: "5_1_2.js",	instance: "A3103_42",	vehicles: "2"
file: "5_1_3.js",	instance: "A3103_42",	vehicles: "3"
file: "5_1_4.js",	instance: "A3103_42",	vehicles: "4"
file: "5_2_2.js",	instance: "A3105_13",	vehicles: "2"
file: "5_2_3.js",	instance: "A3105_13",	vehicles: "3"
file: "5_2_4.js",	instance: "A3105_13",	vehicles: "4"
file: "5_3_2.js",	instance: "A3107_55",	vehicles: "2"
file: "5_3_3.js",	instance: "A3107_55",	vehicles: "3"
file: "5_3_4.js",	instance: "A3107_55",	vehicles: "4"
file: "5_3_5.js",	instance: "A3107_55",	vehicles: "5"
file: "5_4_2.js",	instance: "A3109_102",	vehicles: "2"
file: "5_4_3.js",	instance: "A3109_102",	vehicles: "3"
file: "5_4_4.js",	instance: "A3109_102",	vehicles: "4"
file: "5_4_5.js",	instance: "A3109_102",	vehicles: "5"
file: "5_5_2.js",	instance: "A3111_41",	vehicles: "2"
file: "5_5_3.js",	instance: "A3111_41",	vehicles: "3"
file: "5_5_4.js",	instance: "A3111_41",	vehicles: "4"
file: "5_5_5.js",	instance: "A3111_41",	vehicles: "5"
file: "5_6_2.js",	instance: "A3201_23",	vehicles: "2"
file: "5_6_3.js",	instance: "A3201_23",	vehicles: "3"
file: "5_6_4.js",	instance: "A3201_23",	vehicles: "4"
file: "5_6_5.js",	instance: "A3201_23",	vehicles: "5"
file: "5_7_2.js",	instance: "A3203_7",	vehicles: "2"
file: "5_7_3.js",	instance: "A3203_7",	vehicles: "3"
file: "5_7_4.js",	instance: "A3203_7",	vehicles: "4"
file: "5_7_5.js",	instance: "A3203_7",	vehicles: "5"
file: "5_8_2.js",	instance: "A3205_107",	vehicles: "2"
file: "5_8_3.js",	instance: "A3205_107",	vehicles: "3"
file: "5_8_4.js",	instance: "A3205_107",	vehicles: "4"
file: "5_8_5.js",	instance: "A3205_107",	vehicles: "5"
file: "5_9_2.js",	instance: "A3207_45",	vehicles: "2"
file: "5_9_3.js",	instance: "A3207_45",	vehicles: "3"
file: "5_9_4.js",	instance: "A3207_45",	vehicles: "4"
file: "5_9_5.js",	instance: "A3207_45",	vehicles: "5"
file: "5_10_2.js",	instance: "A3209_92",	vehicles: "2"
file: "5_10_3.js",	instance: "A3209_92",	vehicles: "3"
file: "5_10_4.js",	instance: "A3209_92",	vehicles: "4"
file: "5_10_5.js",	instance: "A3209_92",	vehicles: "5"
file: "5_11_2.js",	instance: "A3211_101",	vehicles: "2"
file: "5_11_3.js",	instance: "A3211_101",	vehicles: "3"
file: "5_11_4.js",	instance: "A3211_101",	vehicles: "4"
file: "5_11_5.js",	instance: "A3211_101",	vehicles: "5"
file: "5_12_2.js",	instance: "A5101_89",	vehicles: "2"
file: "5_12_3.js",	instance: "A5101_89",	vehicles: "3"
file: "5_12_4.js",	instance: "A5101_89",	vehicles: "4"
file: "5_12_5.js",	instance: "A5101_89",	vehicles: "5"
file: "5_13_2.js",	instance: "A5103_17",	vehicles: "2"
file: "5_13_3.js",	instance: "A5103_17",	vehicles: "3"
file: "5_14_2.js",	instance: "A5105_22",	vehicles: "2"
file: "5_14_3.js",	instance: "A5105_22",	vehicles: "3"
file: "5_15_2.js",	instance: "A5107_91",	vehicles: "2"
file: "5_15_3.js",	instance: "A5107_91",	vehicles: "3"
file: "5_15_4.js",	instance: "A5107_91",	vehicles: "4"
file: "5_15_5.js",	instance: "A5107_91",	vehicles: "5"
file: "5_16_2.js",	instance: "A5109_37",	vehicles: "2"
file: "5_16_3.js",	instance: "A5109_37",	vehicles: "3"
file: "5_16_4.js",	instance: "A5109_37",	vehicles: "4"
file: "5_16_5.js",	instance: "A5109_37",	vehicles: "5"
file: "5_17_2.js",	instance: "A5111_52",	vehicles: "2"
file: "5_17_3.js",	instance: "A5111_52",	vehicles: "3"
file: "5_17_4.js",	instance: "A5111_52",	vehicles: "4"
file: "5_18_2.js",	instance: "A5201_41",	vehicles: "2"
file: "5_18_3.js",	instance: "A5201_41",	vehicles: "3"
file: "5_18_4.js",	instance: "A5201_41",	vehicles: "4"
file: "5_18_5.js",	instance: "A5201_41",	vehicles: "5"
file: "5_19_2.js",	instance: "A5203_83",	vehicles: "2"
file: "5_19_3.js",	instance: "A5203_83",	vehicles: "3"
file: "5_20_2.js",	instance: "A5205_29",	vehicles: "2"
file: "5_20_3.js",	instance: "A5205_29",	vehicles: "3"
file: "5_20_4.js",	instance: "A5205_29",	vehicles: "4"
file: "5_20_5.js",	instance: "A5205_29",	vehicles: "5"
file: "5_21_2.js",	instance: "A5207_105",	vehicles: "2"
file: "5_21_3.js",	instance: "A5207_105",	vehicles: "3"
file: "5_21_4.js",	instance: "A5207_105",	vehicles: "4"
file: "5_21_5.js",	instance: "A5207_105",	vehicles: "5"
file: "5_22_2.js",	instance: "A5209_33",	vehicles: "2"
file: "5_22_3.js",	instance: "A5209_33",	vehicles: "3"
file: "5_22_4.js",	instance: "A5209_33",	vehicles: "4"
file: "5_22_5.js",	instance: "A5209_33",	vehicles: "5"
file: "5_23_2.js",	instance: "A5211_113",	vehicles: "2"
file: "5_23_3.js",	instance: "A5211_113",	vehicles: "3"
file: "5_23_4.js",	instance: "A5211_113",	vehicles: "4"
file: "5_23_5.js",	instance: "A5211_113",	vehicles: "5"
file: "6_0_2.js",	instance: "M3101_129",	vehicles: "2"
file: "6_0_3.js",	instance: "M3101_129",	vehicles: "3"
file: "6_0_4.js",	instance: "M3101_129",	vehicles: "4"
file: "6_0_5.js",	instance: "M3101_129",	vehicles: "5"
file: "6_1_2.js",	instance: "M3103_05",	vehicles: "2"
file: "6_1_3.js",	instance: "M3103_05",	vehicles: "3"
file: "6_1_4.js",	instance: "M3103_05",	vehicles: "4"
file: "6_1_5.js",	instance: "M3103_05",	vehicles: "5"
file: "6_2_2.js",	instance: "M3105_187",	vehicles: "2"
file: "6_2_3.js",	instance: "M3105_187",	vehicles: "3"
file: "6_2_4.js",	instance: "M3105_187",	vehicles: "4"
file: "6_2_5.js",	instance: "M3105_187",	vehicles: "5"
file: "6_3_2.js",	instance: "M3107_93",	vehicles: "2"
file: "6_3_3.js",	instance: "M3107_93",	vehicles: "3"
file: "6_3_4.js",	instance: "M3107_93",	vehicles: "4"
file: "6_3_5.js",	instance: "M3107_93",	vehicles: "5"
file: "6_4_2.js",	instance: "M3109_156",	vehicles: "2"
file: "6_4_3.js",	instance: "M3109_156",	vehicles: "3"
file: "6_4_4.js",	instance: "M3109_156",	vehicles: "4"
file: "6_4_5.js",	instance: "M3109_156",	vehicles: "5"
file: "6_5_2.js",	instance: "M3111_139",	vehicles: "2"
file: "6_5_3.js",	instance: "M3111_139",	vehicles: "3"
file: "6_5_4.js",	instance: "M3111_139",	vehicles: "4"
file: "6_5_5.js",	instance: "M3111_139",	vehicles: "5"
file: "6_6_2.js",	instance: "M3201_157",	vehicles: "2"
file: "6_6_3.js",	instance: "M3201_157",	vehicles: "3"
file: "6_6_4.js",	instance: "M3201_157",	vehicles: "4"
file: "6_6_5.js",	instance: "M3201_157",	vehicles: "5"
file: "6_7_2.js",	instance: "M3203_140",	vehicles: "2"
file: "6_7_3.js",	instance: "M3203_140",	vehicles: "3"
file: "6_7_4.js",	instance: "M3203_140",	vehicles: "4"
file: "6_7_5.js",	instance: "M3203_140",	vehicles: "5"
file: "6_8_2.js",	instance: "M3205_55",	vehicles: "2"
file: "6_8_3.js",	instance: "M3205_55",	vehicles: "3"
file: "6_8_4.js",	instance: "M3205_55",	vehicles: "4"
file: "6_8_5.js",	instance: "M3205_55",	vehicles: "5"
file: "6_9_2.js",	instance: "M3207_123",	vehicles: "2"
file: "6_9_3.js",	instance: "M3207_123",	vehicles: "3"
file: "6_9_4.js",	instance: "M3207_123",	vehicles: "4"
file: "6_9_5.js",	instance: "M3207_123",	vehicles: "5"
file: "6_10_2.js",	instance: "M3209_81",	vehicles: "2"
file: "6_10_3.js",	instance: "M3209_81",	vehicles: "3"
file: "6_10_4.js",	instance: "M3209_81",	vehicles: "4"
file: "6_10_5.js",	instance: "M3209_81",	vehicles: "5"
file: "6_11_2.js",	instance: "M3211_178",	vehicles: "2"
file: "6_11_3.js",	instance: "M3211_178",	vehicles: "3"
file: "6_11_4.js",	instance: "M3211_178",	vehicles: "4"
file: "6_11_5.js",	instance: "M3211_178",	vehicles: "5"
file: "6_12_2.js",	instance: "M5101_75",	vehicles: "2"
file: "6_12_3.js",	instance: "M5101_75",	vehicles: "3"
file: "6_12_4.js",	instance: "M5101_75",	vehicles: "4"
file: "6_12_5.js",	instance: "M5101_75",	vehicles: "5"
file: "6_13_2.js",	instance: "M5103_03",	vehicles: "2"
file: "6_13_3.js",	instance: "M5103_03",	vehicles: "3"
file: "6_13_4.js",	instance: "M5103_03",	vehicles: "4"
file: "6_14_2.js",	instance: "M5105_11",	vehicles: "2"
file: "6_14_3.js",	instance: "M5105_11",	vehicles: "3"
file: "6_14_4.js",	instance: "M5105_11",	vehicles: "4"
file: "6_15_2.js",	instance: "M5107_121",	vehicles: "2"
file: "6_15_3.js",	instance: "M5107_121",	vehicles: "3"
file: "6_15_4.js",	instance: "M5107_121",	vehicles: "4"
file: "6_15_5.js",	instance: "M5107_121",	vehicles: "5"
file: "6_16_2.js",	instance: "M5109_10",	vehicles: "2"
file: "6_16_3.js",	instance: "M5109_10",	vehicles: "3"
file: "6_17_2.js",	instance: "M5111_40",	vehicles: "2"
file: "6_17_3.js",	instance: "M5111_40",	vehicles: "3"
file: "6_17_4.js",	instance: "M5111_40",	vehicles: "4"
file: "6_18_2.js",	instance: "M5201_147",	vehicles: "2"
file: "6_18_3.js",	instance: "M5201_147",	vehicles: "3"
file: "6_18_4.js",	instance: "M5201_147",	vehicles: "4"
file: "6_19_2.js",	instance: "M5203_104",	vehicles: "2"
file: "6_19_3.js",	instance: "M5203_104",	vehicles: "3"
file: "6_19_4.js",	instance: "M5203_104",	vehicles: "4"
file: "6_19_5.js",	instance: "M5203_104",	vehicles: "5"
file: "6_20_2.js",	instance: "M5205_98",	vehicles: "2"
file: "6_20_3.js",	instance: "M5205_98",	vehicles: "3"
file: "6_20_4.js",	instance: "M5205_98",	vehicles: "4"
file: "6_20_5.js",	instance: "M5205_98",	vehicles: "5"
file: "6_21_2.js",	instance: "M5207_08",	vehicles: "2"
file: "6_21_3.js",	instance: "M5207_08",	vehicles: "3"
file: "6_21_4.js",	instance: "M5207_08",	vehicles: "4"
file: "6_22_2.js",	instance: "M5209_142",	vehicles: "2"
file: "6_22_3.js",	instance: "M5209_142",	vehicles: "3"
file: "6_22_4.js",	instance: "M5209_142",	vehicles: "4"
file: "6_23_2.js",	instance: "M5211_23",	vehicles: "2"
file: "6_23_3.js",	instance: "M5211_23",	vehicles: "3"
file: "7_0_2.js",	instance: "50_3_10_1",	vehicles: "2"
file: "7_0_3.js",	instance: "50_3_10_1",	vehicles: "3"
file: "7_0_4.js",	instance: "50_3_10_1",	vehicles: "4"
file: "7_1_2.js",	instance: "50_3_10_2",	vehicles: "2"
file: "7_1_3.js",	instance: "50_3_10_2",	vehicles: "3"
file: "7_1_4.js",	instance: "50_3_10_2",	vehicles: "4"
file: "7_2_2.js",	instance: "50_3_10_3",	vehicles: "2"
file: "7_2_3.js",	instance: "50_3_10_3",	vehicles: "3"
file: "7_2_4.js",	instance: "50_3_10_3",	vehicles: "4"
file: "7_2_5.js",	instance: "50_3_10_3",	vehicles: "5"
file: "7_3_2.js",	instance: "50_3_20_1",	vehicles: "2"
file: "7_3_3.js",	instance: "50_3_20_1",	vehicles: "3"
file: "7_3_4.js",	instance: "50_3_20_1",	vehicles: "4"
file: "7_3_5.js",	instance: "50_3_20_1",	vehicles: "5"
file: "7_4_2.js",	instance: "50_3_20_2",	vehicles: "2"
file: "7_4_3.js",	instance: "50_3_20_2",	vehicles: "3"
file: "7_4_4.js",	instance: "50_3_20_2",	vehicles: "4"
file: "7_5_2.js",	instance: "50_3_20_3",	vehicles: "2"
file: "7_5_3.js",	instance: "50_3_20_3",	vehicles: "3"
file: "7_5_4.js",	instance: "50_3_20_3",	vehicles: "4"
file: "7_5_5.js",	instance: "50_3_20_3",	vehicles: "5"
file: "7_6_2.js",	instance: "50_3_2_1",	vehicles: "2"
file: "7_6_3.js",	instance: "50_3_2_1",	vehicles: "3"
file: "7_7_2.js",	instance: "50_3_2_2",	vehicles: "2"
file: "7_7_3.js",	instance: "50_3_2_2",	vehicles: "3"
file: "7_8_2.js",	instance: "50_3_2_3",	vehicles: "2"
file: "7_9_2.js",	instance: "50_3_5_1",	vehicles: "2"
file: "7_9_3.js",	instance: "50_3_5_1",	vehicles: "3"
file: "7_9_4.js",	instance: "50_3_5_1",	vehicles: "4"
file: "7_10_2.js",	instance: "50_3_5_2",	vehicles: "2"
file: "7_10_3.js",	instance: "50_3_5_2",	vehicles: "3"
file: "7_10_4.js",	instance: "50_3_5_2",	vehicles: "4"
file: "7_11_2.js",	instance: "50_3_5_3",	vehicles: "2"
file: "7_11_3.js",	instance: "50_3_5_3",	vehicles: "3"
file: "7_11_4.js",	instance: "50_3_5_3",	vehicles: "4"
file: "8_0_2.js",	instance: "75_3_10_1",	vehicles: "2"
file: "8_0_3.js",	instance: "75_3_10_1",	vehicles: "3"
file: "8_0_4.js",	instance: "75_3_10_1",	vehicles: "4"
file: "8_0_5.js",	instance: "75_3_10_1",	vehicles: "5"
file: "8_1_2.js",	instance: "75_3_10_2",	vehicles: "2"
file: "8_1_3.js",	instance: "75_3_10_2",	vehicles: "3"
file: "8_1_4.js",	instance: "75_3_10_2",	vehicles: "4"
file: "8_1_5.js",	instance: "75_3_10_2",	vehicles: "5"
file: "8_2_2.js",	instance: "75_3_10_3",	vehicles: "2"
file: "8_2_3.js",	instance: "75_3_10_3",	vehicles: "3"
file: "8_2_4.js",	instance: "75_3_10_3",	vehicles: "4"
file: "8_2_5.js",	instance: "75_3_10_3",	vehicles: "5"
file: "8_3_2.js",	instance: "75_3_20_1",	vehicles: "2"
file: "8_3_3.js",	instance: "75_3_20_1",	vehicles: "3"
file: "8_3_4.js",	instance: "75_3_20_1",	vehicles: "4"
file: "8_3_5.js",	instance: "75_3_20_1",	vehicles: "5"
file: "8_4_2.js",	instance: "75_3_20_2",	vehicles: "2"
file: "8_4_3.js",	instance: "75_3_20_2",	vehicles: "3"
file: "8_4_4.js",	instance: "75_3_20_2",	vehicles: "4"
file: "8_4_5.js",	instance: "75_3_20_2",	vehicles: "5"
file: "8_5_2.js",	instance: "75_3_20_3",	vehicles: "2"
file: "8_5_3.js",	instance: "75_3_20_3",	vehicles: "3"
file: "8_5_4.js",	instance: "75_3_20_3",	vehicles: "4"
file: "8_5_5.js",	instance: "75_3_20_3",	vehicles: "5"
file: "8_6_2.js",	instance: "75_3_2_1",	vehicles: "2"
file: "8_6_3.js",	instance: "75_3_2_1",	vehicles: "3"
file: "8_6_4.js",	instance: "75_3_2_1",	vehicles: "4"
file: "8_7_2.js",	instance: "75_3_2_2",	vehicles: "2"
file: "8_7_3.js",	instance: "75_3_2_2",	vehicles: "3"
file: "8_7_4.js",	instance: "75_3_2_2",	vehicles: "4"
file: "8_8_2.js",	instance: "75_3_2_3",	vehicles: "2"
file: "8_8_3.js",	instance: "75_3_2_3",	vehicles: "3"
file: "8_8_4.js",	instance: "75_3_2_3",	vehicles: "4"
file: "8_8_5.js",	instance: "75_3_2_3",	vehicles: "5"
file: "8_9_2.js",	instance: "75_3_5_1",	vehicles: "2"
file: "8_9_3.js",	instance: "75_3_5_1",	vehicles: "3"
file: "8_9_4.js",	instance: "75_3_5_1",	vehicles: "4"
file: "8_10_2.js",	instance: "75_3_5_2",	vehicles: "2"
file: "8_10_3.js",	instance: "75_3_5_2",	vehicles: "3"
file: "8_10_4.js",	instance: "75_3_5_2",	vehicles: "4"
file: "8_10_5.js",	instance: "75_3_5_2",	vehicles: "5"
file: "8_11_2.js",	instance: "75_3_5_3",	vehicles: "2"
file: "8_11_3.js",	instance: "75_3_5_3",	vehicles: "3"
file: "8_11_4.js",	instance: "75_3_5_3",	vehicles: "4"
